ADC/simulation/qsim/ADC.msim.vcd
$comment
	File created using the following command:
		vcd file ADC.msim.vcd -direction
$end
$date
	Mon Jun 10 19:14:32 2024
$end
$version
	ModelSim Version 10.1d
$end
$timescale
	1ps
$end
$scope module div_clk_vlg_vec_tst $end
$var reg 1 ! clk_in $end
$var wire 1 " clk_out $end
$var wire 1 # sampler $end
$scope module i1 $end
$var wire 1 $ gnd $end
$var wire 1 % vcc $end
$var wire 1 & unknown $end
$var tri1 1 ' devclrn $end
$var tri1 1 ( devpor $end
$var tri1 1 ) devoe $end
$var wire 1 * clk_in~combout $end
$var wire 1 + LessThan0~0_combout $end
$var wire 1 , temp~regout $end
$var wire 1 - count [3] $end
$var wire 1 . count [2] $end
$var wire 1 / count [1] $end
$var wire 1 0 count [0] $end
$upscope $end
$upscope $end
$enddefinitions $end
#0
$dumpvars
0!
0"
x#
0$
1%
x&
1'
1(
1)
0*
1+
0,
00
0/
0.
0-
$end
#10000
1!
1*
0#
10
#20000
0!
0*
1#
#30000
1!
1*
0#
1/
00
#40000
0!
0*
1#
#50000
1!
1*
0#
10
#60000
0!
0*
1#
#70000
1!
1*
0#
0/
00
1.
#80000
0!
0*
1#
#90000
1!
1*
0#
10
#100000
0!
0*
1#
#110000
1!
1*
0#
1/
00
#120000
0!
0*
1#
#130000
1!
1*
0#
10
#140000
0!
0*
1#
#150000
1!
1*
0#
1-
0/
00
0.
#160000
0!
0*
1#
#170000
1!
1*
0#
10
#180000
0!
0*
1#
#190000
1!
1*
0#
1/
00
#200000
0!
0*
1#
#210000
1!
1*
0#
10
#220000
0!
0*
1#
#230000
1!
1*
0#
0/
00
1.
0+
#240000
0!
0*
1#
#250000
1!
1*
0#
1,
0-
0.
1+
1"
#260000
0!
0*
1#
#270000
1!
1*
0#
10
#280000
0!
0*
1#
#290000
1!
1*
0#
1/
00
#300000
0!
0*
1#
#310000
1!
1*
0#
10
#320000
0!
0*
1#
#330000
1!
1*
0#
0/
00
1.
#340000
0!
0*
1#
#350000
1!
1*
0#
10
#360000
0!
0*
1#
#370000
1!
1*
0#
1/
00
#380000
0!
0*
1#
#390000
1!
1*
0#
10
#400000
0!
0*
1#
#410000
1!
1*
0#
1-
0/
00
0.
#420000
0!
0*
1#
#430000
1!
1*
0#
10
#440000
0!
0*
1#
#450000
1!
1*
0#
1/
00
#460000
0!
0*
1#
#470000
1!
1*
0#
10
#480000
0!
0*
1#
#490000
1!
1*
0#
0/
00
1.
0+
#500000
0!
0*
1#
#510000
1!
1*
0#
0,
0-
0.
1+
0"
#520000
0!
0*
1#
#530000
1!
1*
0#
10
#540000
0!
0*
1#
#550000
1!
1*
0#
1/
00
#560000
0!
0*
1#
#570000
1!
1*
0#
10
#580000
0!
0*
1#
#590000
1!
1*
0#
0/
00
1.
#600000
0!
0*
1#
#610000
1!
1*
0#
10
#620000
0!
0*
1#
#630000
1!
1*
0#
1/
00
#640000
0!
0*
1#
#650000
1!
1*
0#
10
#660000
0!
0*
1#
#670000
1!
1*
0#
1-
0/
00
0.
#680000
0!
0*
1#
#690000
1!
1*
0#
10
#700000
0!
0*
1#
#710000
1!
1*
0#
1/
00
#720000
0!
0*
1#
#730000
1!
1*
0#
10
#740000
0!
0*
1#
#750000
1!
1*
0#
0/
00
1.
0+
#760000
0!
0*
1#
#770000
1!
1*
0#
1,
0-
0.
1+
1"
#780000
0!
0*
1#
#790000
1!
1*
0#
10
#800000
0!
0*
1#
#810000
1!
1*
0#
1/
00
#820000
0!
0*
1#
#830000
1!
1*
0#
10
#840000
0!
0*
1#
#850000
1!
1*
0#
0/
00
1.
#860000
0!
0*
1#
#870000
1!
1*
0#
10
#880000
0!
0*
1#
#890000
1!
1*
0#
1/
00
#900000
0!
0*
1#
#910000
1!
1*
0#
10
#920000
0!
0*
1#
#930000
1!
1*
0#
1-
0/
00
0.
#940000
0!
0*
1#
#950000
1!
1*
0#
10
#960000
0!
0*
1#
#970000
1!
1*
0#
1/
00
#980000
0!
0*
1#
#990000
1!
1*
0#
10
